{
  "type": "object",
  "required": [
    "status",
    "progress",
    "score",
    "start_date",
    "end_date",
    "repetitions",
    "comments",
    "date_added",
    "last_modified",
    "library_ref",
    "user"
  ],
  "properties": {
    "library_ref": {
      "type": "object",
      "required": [ "$id", "$ref" ],
      "additionalProperties": {
        "type": "string"
      }
    },
    "user": {
      "type": "string"
    },
    "progress": {
      "bsonType": "int",
      "minimum": 0,
      "maximum": 10000
    },
    "score": {
      "type": [ "number", "null" ],
      "minimum": 0,
      "maximum": 10
    },
    "status": {
      "type": "string",
      "enum": [ "planned", "current", "on-hold", "completed", "dropped" ]
    },
    "start_date": {
      "bsonType": [ "date", "null" ]
    },
    "end_date": {
      "bsonType": [ "date", "null" ]
    },
    "repetitions": {
      "bsonType": "int"
    },
    "comments": {
      "type": "string",
      "maxLength": 4096
    },
    "volumes": {
      "bsonType": [ "int", "null" ],
      "minimum": 0,
      "maximum": 5000
    },
    "date_added": {
      "bsonType": "date"
    },
    "last_modified": {
      "bsonType": "date"
    }
  }
}