{
  "$schema": "http://json-schema.org/draft-04/schema#",
  "$id": "http://toshokan.moe/novel.schema.json",
  "title": "Novel",
  "description": "A novel or light novel data entry in the Library.",
  "type": "object",
  "required": [ "_id", "title", "synonyms", "image", "type", "status", "chapter_count", "volume_count", "start_date", "end_date", "authors", "serialization", "genres", "description", "links", "external_links", "date_added", "last_modified" ],
  "properties": {
    "_id": {
      "type": "string"
    },
    "title": {
      "type": "string",
      "description": "The title"
    },
    "synonyms": {
      "type": "object",
      "additionalProperties": false,
      "properties": {
        "synonyms": {
          "type": "string"
        },
        "english": {
          "type": "string"
        },
        "japanese": {
          "type": "string"
        }
      }
    },
    "image": {
      "type": [ "string", "null" ]
    },
    "type": {
      "type": "string",
      "enum": [ "Novel" ]
    },
    "status": {
      "type": "string",
      "enum": [ "Not yet published", "Publishing", "Finished" ]
    },
    "chapter_count": {
      "bsonType": [ "int", "null" ],
      "minimum": 0,
      "description": "The number of chapters."
    },
    "volume_count": {
      "bsonType": [ "int", "null" ],
      "minimum": 0,
      "description": "The number of volumes."
    },
    "start_date": {
      "bsonType": [ "date", "null" ]
    },
    "end_date": {
      "bsonType": [ "date", "null" ]
    },
    "authors": {
      "type": "array",
      "items": {
        "type": "object",
        "additionalProperties": {
          "type": "string"
        },
        "properties": {
          "name": {
            "type": "string"
          },
          "roles": {
            "type": "array",
            "items": {
              "type": "string",
              "enum": [ "Art", "Story" ]
            }
          }
        }
      }
    },
    "serialization": {
      "type": [ "string", "null" ]
    },
    "genres": {
      "type": "array",
      "items": {
        "type": "string",
        "enum": [
          "Action",
          "Adventure",
          "Cars",
          "Comedy",
          "Dementia",
          "Demons",
          "Doujinshi",
          "Drama",
          "Ecchi",
          "Fantasy",
          "Game",
          "Gender Bender",
          "Harem",
          "Hentai",
          "Historical",
          "Horror",
          "Josei",
          "Kids",
          "Magic",
          "Martial Arts",
          "Mecha",
          "Military",
          "Music",
          "Mystery",
          "Parody",
          "Police",
          "Psychological",
          "Romance",
          "Samurai",
          "School",
          "Sci-Fi",
          "Seinen",
          "Shoujo",
          "Shoujo Ai",
          "Shounen",
          "Shounen Ai",
          "Slice of Life",
          "Space",
          "Sports",
          "Super Power",
          "Supernatural",
          "Thriller",
          "Vampire",
          "Yaoi",
          "Yuri"
        ]
      }
    },
    "description": {
      "type": "string"
    },
    "links": {
      "type": "object",
      "additionalProperties": {
        "type": "array",
        "items": {
          "oneOf": [
            {
              "type": "object",
              "additionalProperties": {
                "type": "string"
              },
              "properties": {
                "title": {
                  "type": "string"
                }
              }
            },
            {
              "type": "object",
              "required": [ "missing_ref", "missing_id" ],
              "properties": {
                "missing_ref": {
                  "type": "string",
                  "enum": [ "anime", "manga", "novel", "vn" ]
                },
                "missing_id": {
                  "type": "number"
                }
              }
            }
          ]
        }
      }
    },
    "external_links": {
      "type": "object",
      "properties": {
        "mal": {
          "bsonType": "int"
        }
      }
    },
    "date_added": {
      "bsonType": "date"
    },
    "last_modified": {
      "bsonType": "date"
    }
  }
}
